{
    "prepare_queue": {
        "installed": [],
        "uninstalled": []
    },
    "config_munge": {
        "files": {
            "config.xml": {
                "parents": {
                    "/*": [
                        {
                            "xml": "<feature name=\"Device\"><param name=\"browser-package\" value=\"Device\" /></feature>",
                            "count": 1
                        },
                        {
                            "xml": "<feature name=\"Camera\"><param name=\"browser-package\" value=\"Camera\" /></feature>",
                            "count": 1
                        }
                    ]
                }
            }
        }
    },
    "installed_plugins": {
        "cordova-plugin-crosswalk-webview": {
            "PACKAGE_NAME": "com.metajua.app"
        },
        "cordova-plugin-splashscreen": {
            "PACKAGE_NAME": "com.metajua.app"
        },
        "cordova-plugin-whitelist": {
            "PACKAGE_NAME": "com.metajua.app"
        },
        "cordova-plugin-device": {
            "PACKAGE_NAME": "com.metajua"
        },
        "cordova-plugin-compat": {
            "PACKAGE_NAME": "com.ecotrust.mobile"
        },
        "cordova-plugin-geolocation": {
            "PACKAGE_NAME": "com.ecotrust.mobile"
        },
        "cordova-plugin-camera": {
            "PACKAGE_NAME": "com.ecotrust"
        }
    },
    "dependent_plugins": {},
    "modules": [
        {
            "file": "plugins/cordova-plugin-splashscreen/www/splashscreen.js",
            "id": "cordova-plugin-splashscreen.SplashScreen",
            "pluginId": "cordova-plugin-splashscreen",
            "clobbers": [
                "navigator.splashscreen"
            ]
        },
        {
            "file": "plugins/cordova-plugin-splashscreen/src/browser/SplashScreenProxy.js",
            "id": "cordova-plugin-splashscreen.SplashScreenProxy",
            "pluginId": "cordova-plugin-splashscreen",
            "runs": true
        },
        {
            "file": "plugins/cordova-plugin-device/www/device.js",
            "id": "cordova-plugin-device.device",
            "pluginId": "cordova-plugin-device",
            "clobbers": [
                "device"
            ]
        },
        {
            "file": "plugins/cordova-plugin-device/src/browser/DeviceProxy.js",
            "id": "cordova-plugin-device.DeviceProxy",
            "pluginId": "cordova-plugin-device",
            "runs": true
        },
        {
            "file": "plugins/cordova-plugin-camera/www/CameraConstants.js",
            "id": "cordova-plugin-camera.Camera",
            "pluginId": "cordova-plugin-camera",
            "clobbers": [
                "Camera"
            ]
        },
        {
            "file": "plugins/cordova-plugin-camera/www/CameraPopoverOptions.js",
            "id": "cordova-plugin-camera.CameraPopoverOptions",
            "pluginId": "cordova-plugin-camera",
            "clobbers": [
                "CameraPopoverOptions"
            ]
        },
        {
            "file": "plugins/cordova-plugin-camera/www/Camera.js",
            "id": "cordova-plugin-camera.camera",
            "pluginId": "cordova-plugin-camera",
            "clobbers": [
                "navigator.camera"
            ]
        },
        {
            "file": "plugins/cordova-plugin-camera/src/browser/CameraProxy.js",
            "id": "cordova-plugin-camera.CameraProxy",
            "pluginId": "cordova-plugin-camera",
            "runs": true
        }
    ],
    "plugin_metadata": {
        "cordova-plugin-crosswalk-webview": "2.3.0",
        "cordova-plugin-splashscreen": "4.0.2",
        "cordova-plugin-whitelist": "1.3.2",
        "cordova-plugin-device": "1.1.5",
        "cordova-plugin-compat": "1.1.0",
        "cordova-plugin-geolocation": "2.4.2",
        "cordova-plugin-camera": "2.4.1"
    }
}